DM Object: 1 MPI processes
  type: plex
DM_0x84000000_0 in 2 dimensions:
  0-cells: 169
  1-cells: 312
  2-cells: 144
Labels:
  markerLeft: 1 strata of sizes (25)
  markerTop: 1 strata of sizes (25)
  markerRight: 1 strata of sizes (25)
  markerBottom: 1 strata of sizes (25)
  marker: 4 strata of sizes (25, 25, 25, 25)
  Face Sets: 4 strata of sizes (21, 21, 21, 21)
  depth: 3 strata of sizes (169, 312, 144)
Integral of pressure: -5.89806e-17
  0 SNES Function norm 0.0228994 
    0 KSP Residual norm 0.409711 
    1 KSP Residual norm 0.00103327 
    2 KSP Residual norm 2.97745e-06 
    3 KSP Residual norm < 1.e-11
  Linear solve converged due to CONVERGED_ATOL iterations 3
  1 SNES Function norm 7.425e-11 
Nonlinear solve converged due to CONVERGED_FNORM_RELATIVE iterations 1
SNES Object: 1 MPI processes
  type: newtonls
  maximum iterations=50, maximum function evaluations=10000
  tolerances: relative=1e-08, absolute=1e-50, solution=1e-08
  total number of linear solver iterations=3
  total number of function evaluations=2
  norm schedule ALWAYS
  SNESLineSearch Object:   1 MPI processes
    type: bt
      interpolation: cubic
      alpha=1.000000e-04
    maxstep=1.000000e+08, minlambda=1.000000e-12
    tolerances: relative=1.000000e-08, absolute=1.000000e-15, lambda=1.000000e-08
    maximum iterations=40
  KSP Object:   1 MPI processes
    type: gmres
      GMRES: restart=30, using Classical (unmodified) Gram-Schmidt Orthogonalization with no iterative refinement
      GMRES: happy breakdown tolerance 1e-30
    maximum iterations=10000, initial guess is zero
    tolerances:  relative=1e-12, absolute=1e-12, divergence=10000
    left preconditioning
    using PRECONDITIONED norm type for convergence test
  PC Object:   1 MPI processes
    type: fieldsplit
      FieldSplit with Schur preconditioner, factorization FULL
      Preconditioner for the Schur complement formed from Sp, an assembled approximation to S, which uses (lumped, if requested) A00's diagonal's inverse
      Split info:
      Split number 0 Defined by IS
      Split number 1 Defined by IS
      KSP solver for A00 block
        KSP Object:        (fieldsplit_velocity_)         1 MPI processes
          type: gmres
            GMRES: restart=30, using Classical (unmodified) Gram-Schmidt Orthogonalization with no iterative refinement
            GMRES: happy breakdown tolerance 1e-30
          maximum iterations=10000, initial guess is zero
          tolerances:  relative=1e-05, absolute=1e-50, divergence=10000
          left preconditioning
          using PRECONDITIONED norm type for convergence test
        PC Object:        (fieldsplit_velocity_)         1 MPI processes
          type: lu
            LU: out-of-place factorization
            tolerance for zero pivot 2.22045e-14
            matrix ordering: nd
            factor fill ratio given 5, needed 2.30915
              Factored matrix follows:
                Mat Object:                 1 MPI processes
                  type: seqaij
                  rows=1150, cols=1150
                  package used to perform factorization: petsc
                  total: nonzeros=77218, allocated nonzeros=77218
                  total number of mallocs used during MatSetValues calls =0
                    using I-node routines: found 543 nodes, limit used is 5
          linear system matrix = precond matrix:
          Mat Object:          (fieldsplit_velocity_)           1 MPI processes
            type: seqaij
            rows=1150, cols=1150
            total: nonzeros=33440, allocated nonzeros=33440
            total number of mallocs used during MatSetValues calls =0
              using I-node routines: found 621 nodes, limit used is 5
      KSP solver for S = A11 - A10 inv(A00) A01 
        KSP Object:        (fieldsplit_pressure_)         1 MPI processes
          type: gmres
            GMRES: restart=200, using Classical (unmodified) Gram-Schmidt Orthogonalization with no iterative refinement
            GMRES: happy breakdown tolerance 1e-30
          maximum iterations=10000, initial guess is zero
          tolerances:  relative=1e-12, absolute=5e-09, divergence=10000
          left preconditioning
          using PRECONDITIONED norm type for convergence test
        PC Object:        (fieldsplit_pressure_)         1 MPI processes
          type: jacobi
          linear system matrix followed by preconditioner matrix:
          Mat Object:          (fieldsplit_pressure_)           1 MPI processes
            type: schurcomplement
            rows=169, cols=169
              has attached null space
              Schur complement A11 - A10 inv(A00) A01
              A11
                Mat Object:                (fieldsplit_pressure_)                 1 MPI processes
                  type: seqaij
                  rows=169, cols=169
                  total: nonzeros=1369, allocated nonzeros=1369
                  total number of mallocs used during MatSetValues calls =0
                    has attached null space
                    not using I-node routines
              A10
                Mat Object:                 1 MPI processes
                  type: seqaij
                  rows=169, cols=1150
                  total: nonzeros=6954, allocated nonzeros=6954
                  total number of mallocs used during MatSetValues calls =0
                    not using I-node routines
              KSP of A00
                KSP Object:                (fieldsplit_velocity_)                 1 MPI processes
                  type: gmres
                    GMRES: restart=30, using Classical (unmodified) Gram-Schmidt Orthogonalization with no iterative refinement
                    GMRES: happy breakdown tolerance 1e-30
                  maximum iterations=10000, initial guess is zero
                  tolerances:  relative=1e-05, absolute=1e-50, divergence=10000
                  left preconditioning
                  using PRECONDITIONED norm type for convergence test
                PC Object:                (fieldsplit_velocity_)                 1 MPI processes
                  type: lu
                    LU: out-of-place factorization
                    tolerance for zero pivot 2.22045e-14
                    matrix ordering: nd
                    factor fill ratio given 5, needed 2.30915
                      Factored matrix follows:
                        Mat Object:                         1 MPI processes
                          type: seqaij
                          rows=1150, cols=1150
                          package used to perform factorization: petsc
                          total: nonzeros=77218, allocated nonzeros=77218
                          total number of mallocs used during MatSetValues calls =0
                            using I-node routines: found 543 nodes, limit used is 5
                  linear system matrix = precond matrix:
                  Mat Object:                  (fieldsplit_velocity_)                   1 MPI processes
                    type: seqaij
                    rows=1150, cols=1150
                    total: nonzeros=33440, allocated nonzeros=33440
                    total number of mallocs used during MatSetValues calls =0
                      using I-node routines: found 621 nodes, limit used is 5
              A01
                Mat Object:                 1 MPI processes
                  type: seqaij
                  rows=1150, cols=169
                  total: nonzeros=6954, allocated nonzeros=6954
                  total number of mallocs used during MatSetValues calls =0
                    using I-node routines: found 621 nodes, limit used is 5
          Mat Object:           1 MPI processes
            type: seqaij
            rows=169, cols=169
            total: nonzeros=3481, allocated nonzeros=3481
            total number of mallocs used during MatSetValues calls =0
              not using I-node routines
    linear system matrix = precond matrix:
    Mat Object:     1 MPI processes
      type: seqaij
      rows=1319, cols=1319
      total: nonzeros=48717, allocated nonzeros=48717
      total number of mallocs used during MatSetValues calls =0
        has attached null space
        using I-node routines: found 625 nodes, limit used is 5
Number of SNES iterations = 1
L_2 Error: 0.0761 [0.00397, 0.076]
Integral of pressure: 2.00274e-15