Vec Object: 1 MPI processes
  type: seq
0.513862
0.999881

 sensitivity wrt initial conditions: d[Psi(tf)]/d[phi0]  d[Psi(tf)]/d[omega0]
Vec Object: 1 MPI processes
  type: seq
-47.6033
3808.72
Vec Object: 1 MPI processes
  type: seq
110.508
Vec Object: 1 MPI processes
  type: seq
1.36345

 cost function=0.263447

 sensitivity wrt parameter pm: 83.6802597 
